date,longitude,latitude,magnitude
1/1/2010,115.336881,3.10791351,4.760572071
1/2/2010,137.6976529,4.028869509,4.78265566
1/3/2010,126.068567,2.268505462,4.80588344
1/4/2010,136.9723577,-3.923872588,5.254175167
1/5/2010,102.4354482,2.167163155,6.796400802
1/6/2010,112.0108158,-2.521556295,3.583602678
1/7/2010,119.1572692,-3.872999543,7.504626403
1/8/2010,137.4372507,-5.358922543,6.812967477
1/9/2010,97.77041356,3.038761157,6.954682703
1/10/2010,100.3407365,1.509595818,3.588909997
1/11/2010,130.9443145,-5.52286925,3.595280614
1/12/2010,124.6661795,-7.270580466,6.450730783
1/1/2011,105.4317718,-2.557247477,6.921781161
1/2/2011,97.62342928,-6.292569652,6.227334682
1/3/2011,134.7912608,-0.495147796,3.592949771
1/4/2011,134.4868938,-4.341030256,5.989625484
1/5/2011,112.5415518,0.761347307,7.713525566
1/6/2011,133.8743368,-1.327367771,7.589637259
1/7/2011,114.0631111,-4.524084847,3.153687099
1/8/2011,138.0931709,-4.245548727,3.666442709
1/9/2011,119.7807514,-5.09873337,3.354839529
1/10/2011,129.9114844,0.504518095,7.048947011
1/11/2011,130.1266698,-0.165325531,3.767286496
1/12/2011,112.1800774,3.368340499,4.804003771
1/1/2012,111.5198897,-2.816106149,5.927639451
1/2/2012,100.1731874,-4.037095565,3.878790726
1/3/2012,101.3918768,-1.575559874,7.284157142
1/4/2012,111.7221373,-3.166661434,5.609565219
1/5/2012,131.5056864,-0.342458198,3.739661652
1/6/2012,133.8462062,-6.117140082,3.219080815
1/7/2012,106.9789281,1.748368887,7.391413583
1/8/2012,127.4741179,-1.398445686,3.861188819
1/1/2013,109.1807911,-0.268184998,4.810768006
1/2/2013,139.4628947,-7.96665229,3.411106154
1/3/2013,106.3189268,-0.378737793,4.692435222
1/4/2013,111.0035753,-4.687561787,4.683280939
1/5/2013,129.6528335,1.67120883,6.349523582
1/1/2014,99.9445456,-6.512452723,5.909781547
1/2/2014,102.4160335,-3.605731306,3.107949298
1/3/2014,102.0881507,-8.400222873,5.161816638
1/4/2014,137.0750141,-7.38691406,4.513152187
1/4/2015,118.3724297,-0.60986405,4.396450489
1/5/2015,106.9079289,-8.916800472,3.342296112
1/6/2015,99.49866918,-3.476064051,5.820824332
1/7/2015,126.5033711,2.74360848,5.671020312
1/8/2015,134.0227787,-6.963701235,6.899601095
1/9/2015,118.564229,-7.853491788,3.266114305
1/10/2015,132.9401637,-2.949134306,6.773642877
1/11/2015,108.127559,-4.555582178,3.313823277
1/5/2016,133.3984198,1.687682776,5.835304795
1/6/2016,109.4666982,0.345425665,4.923944188
1/7/2016,126.6256706,0.14123953,6.427758333
1/8/2016,127.4787054,-6.682947467,7.420794148
1/9/2016,106.8864304,-8.807710421,6.215153268
1/10/2016,134.090775,5.945800697,6.134936641
1/3/2018,128.2191805,-6.633151128,7.085194436
1/4/2018,117.5122781,-7.707281746,6.580307058
1/5/2018,108.9770986,-9.379936626,6.929103804
1/6/2018,124.8136784,-7.402655955,4.31291739
1/7/2018,99.06298194,-6.186554802,7.75918893
1/8/2018,125.9509362,-7.605131236,5.275893489
1/9/2018,107.4260897,-7.500276491,6.828345785
